{
  "test/controllers/api/ambitions_controller_test.rb": 5.573155798003427,
  "test/controllers/api/blocks_controller_test.rb": 1.0887389059862471,
  "test/controllers/api/content_types_controller_test.rb": 0.06994397000380559,
  "test/controllers/api/data_items_controller_test.rb": 1.26768517299206,
  "test/controllers/api/dossier_definitions_controller_test.rb": 3.9490282789920457,
  "test/controllers/api/dossier_field_definitions_controller_test.rb": 2.3514518670053803,
  "test/controllers/api/dossiers_controller_test.rb": 10.776966755009198,
  "test/controllers/api/events_controller_test.rb": 0.9250272739955108,
  "test/controllers/api/groups_controller_test.rb": 1.0388718579852139,
  "test/controllers/api/notifications_controller_test.rb": 0.40466833900427446,
  "test/controllers/api/pages_controller_test.rb": 0.011059303993533831,
  "test/controllers/api/search_controller_test.rb": 13.597937356003968,
  "test/controllers/api/tasks_controller_test.rb": 17.576451455992355,
  "test/controllers/api/uploaded_files_controller_test.rb": 0.0554543900070712,
  "test/controllers/api/user_settings_controller_test.rb": 0.2584913209939259,
  "test/controllers/api/users_controller_test.rb": 1.0865181230037706,
  "test/controllers/api/workflow_definitions_controller_test.rb": 3.147799043006671,
  "test/controllers/api/workflows_controller_test.rb": 15.038394155002607,
  "test/controllers/api_controller_test.rb": 0.00020723800116684288,
  "test/controllers/home_controller_test.rb": 0.12819463900086703,
  "test/helpers/mentionings_helper_test.rb": 0.007381481998891104,
  "test/helpers/pagination_helper_test.rb": 0.7396447709907079,
  "test/jobs/cleanup_invalid_data_job_test.rb": 0.4062886690007872,
  "test/jobs/deliver_recent_notifications_mails_job_test.rb": 1.0525158419986838,
  "test/jobs/reindex_data_entity_job_test.rb": 0.30794996400072705,
  "test/jobs/run_acl_reindex_only_job_test.rb": 0.5638193669947213,
  "test/jobs/run_full_reindex_job_test.rb": 6.454618465999374,
  "test/jobs/run_reindex_for_workflows_job_test.rb": 0.05377889700321248,
  "test/mailers/notifications_mailer_test.rb": 7.269204830998206,
  "test/models/ability_test.rb": 1.2492509789954056,
  "test/models/ambition_search_test.rb": 5.0264530520144035,
  "test/models/block_test.rb": 2.0306079299989506,
  "test/models/comment_test.rb": 0.008489373001793865,
  "test/models/content_item_test.rb": 1.9452796079931431,
  "test/models/content_type_test.rb": 0.013270841001940425,
  "test/models/contribution_test.rb": 0.03477655500319088,
  "test/models/dossier_definition_test.rb": 0.041654839005786926,
  "test/models/dossier_field_definition_test.rb": 0.11941379099880578,
  "test/models/dossier_search_test.rb": 5.73561042399524,
  "test/models/dossier_test.rb": 0.16164240299985977,
  "test/models/event_dispatcher_test.rb": 0.04274355499364901,
  "test/models/event_test.rb": 1.1024262370046927,
  "test/models/group_test.rb": 0.06775047699193237,
  "test/models/interactors/ambition_interactor_test.rb": 0.38665663400752237,
  "test/models/interactors/comment_interactor_test.rb": 0.15757925400248496,
  "test/models/interactors/dossier_definition_interactor_test.rb": 0.1064374380002846,
  "test/models/interactors/dossier_field_definition_interactor_test.rb": 0.12230719900253462,
  "test/models/interactors/task_interactor_test.rb": 6.730867051977839,
  "test/models/interactors/workflow_definition_interactor_test.rb": 0.7348696860062773,
  "test/models/interactors/workflow_interactor_test.rb": 5.678299999010051,
  "test/models/mentioning_test.rb": 0.0037853600006201304,
  "test/models/notification_lifecycle_support_test.rb": 0.45518263299163664,
  "test/models/notification_test.rb": 0.44044560399925103,
  "test/models/search_index_sync_test.rb": 2.4721736819992657,
  "test/models/search_test.rb": 65.82531337199907,
  "test/models/services/cloned_task_test.rb": 2.565383801011194,
  "test/models/services/dossiers_to_table_test.rb": 0.8368307109922171,
  "test/models/services/due_tasks_test.rb": 0.11447811100515537,
  "test/models/services/new_engine_test.rb": 8.622915573985665,
  "test/models/services/next_interesting_thing_test.rb": 1.5457863829942653,
  "test/models/services/snoozed_tasks_test.rb": 0.4521481039992068,
  "test/models/services/workflow_to_definition_test.rb": 7.331699297988962,
  "test/models/services/workflows_to_table_test.rb": 1.052403427005629,
  "test/models/supersede_support_test.rb": 4.764552756983903,
  "test/models/task_item_test.rb": 0.039202794003358576,
  "test/models/task_search_test.rb": 6.263217680003436,
  "test/models/task_test.rb": 4.226011783990543,
  "test/models/uploaded_file_test.rb": 5.6919483540114015,
  "test/models/user_notification_support_test.rb": 0.004205159995763097,
  "test/models/user_test.rb": 0.07225763698806986,
  "test/models/whenever_test.rb": 0.013098483999783639,
  "test/models/workflow_definition_test.rb": 1.133187072002329,
  "test/models/workflow_search_test.rb": 5.773989037996216,
  "test/models/workflow_test.rb": 8.341684029990574,
  "test/system/admin_system_test.rb": 18.15210020000086,
  "test/system/ambitions_system_test.rb": 35.80495719300234,
  "test/system/demo_user_workflow_test.rb": 33.438191631001246,
  "test/system/dsb_meldung_system_test.rb": 45.24769497399393,
  "test/system/event_system_test.rb": 22.000217578992306,
  "test/system/footer_test.rb": 8.135998951998772,
  "test/system/search_system_test.rb": 27.7040235270033,
  "test/system/test_helper_test.rb": 18.895818805984163,
  "test/system/user_authentication_test.rb": 25.544484511003247,
  "test/system/user_settings_test.rb": 9.70627236799919,
  "test/system/visiblity_after_deleting_system_test.rb": 23.058089541998925,
  "test/system/workflow_engine_system_test.rb": 39.35444894700049,
  "test/system/workflow_system_test.rb": 25.50842122999893
}